{"SignUpData":[
  {
    "email_create":"hussainnnn@gmail.com",
    "customer_firstname":"Shahnawaz",
    "customer_lastname":"hussain",
    "passwd":"123456",
    "firstname":"shahnawaz",
    "lastname":"husssain",
    "company":"TestVagrant",
    "address1":"Ansari Mohalla , Bokaro,Jharkhand 827013",
    "city":"Bokaro",
    "postcode":"82701",
    "phone_mobile":"7903397203"

  }
]
}